<?xml version="1.0" encoding="UTF-8"?>
<svg width="509px" height="89px" viewBox="0 0 509 89" version="1.1" xmlns="http://www.w3.org/2000/svg" xmlns:xlink="http://www.w3.org/1999/xlink">
    <!-- Generator: Sketch 52.5 (67469) - http://www.bohemiancoding.com/sketch -->
    <title>Worldline-2018_RGB</title>
    <desc>Created with Sketch.</desc>
    <g id="Page-1" stroke="none" stroke-width="1" fill="none" fill-rule="evenodd">
        <g id="Worldline-2018_RGB" transform="translate(-83.000000, -70.000000)">
            <rect id="Rectangle" x="0.1" y="0" width="674.6" height="229.6"></rect>
            <g id="Group" transform="translate(83.000000, 70.000000)" fill="#444444">
                <path d="M303.4,4.8 L293.8,4.8 L293.8,29 C290,25.6 285.4,24 277.3,24 C263.8,24 250.4,32.5 250.4,57.3 C250.4,64.9 251.9,71.2 254.5,76.1 C252.6,76.6 250.6,77 248.5,77 C243.1,77 240.5,75.2 240.5,68.9 L240.5,52.8 L240.5,14.7 C240.5,6.3 239.5,4.8 233.7,4.8 L224.2,4.8 L224.2,52.8 L224.2,69.1 L224.2,71 C224.2,85.2 231,88.7 240.2,88.7 C247.2,88.7 254.4,86.3 260.1,83 C264.4,86.8 269.8,88.7 275.9,88.7 C284.2,88.7 290.3,85.2 294.4,80.7 C295.1,86.6 296.7,87.1 299.5,87.1 L310.5,87.1 L310.5,14.7 C310.3,6.4 309.3,4.8 303.4,4.8 Z M293.8,70.9 C289.3,74.6 285.9,76.4 280.7,76.4 C272.3,76.4 268.2,70.9 268.2,56.4 C268.2,40.7 275.5,37.1 282.8,37.1 C287.6,37.1 291.1,38.2 293.8,40.2 L293.8,70.9 Z" id="Shape" fill-rule="nonzero"></path>
                <path d="M197.3,31.9 C196.7,25.7 194.9,25.5 191.9,25.5 L181,25.5 L181,87 L197.5,87 L197.5,42.1 C200.8,40.3 207,38.4 215.6,38.4 L218.6,38.4 L218.6,24.7 C217.4,24.3 216.1,24.1 214.8,24.1 C207.1,24 201.3,27.7 197.3,31.9 Z" id="Path"></path>
                <path d="M360.4,21.6 C365.7,21.6 369.9,17.5 369.9,12.4 C369.9,7.2 365.7,3.1 360.4,3.1 C355.1,3.1 350.8,7.3 350.8,12.4 C350.8,17.5 355.2,21.6 360.4,21.6 Z" id="Path"></path>
                <path d="M156.6,26.5 C152.8,24.9 148.5,23.9 144,23.9 C142.9,23.9 141.7,24 140.6,24.1 C136.7,29.4 134.4,36 134.4,43.2 C134.4,56.6 142.5,68.1 154.2,73 C151.3,75.1 147.8,76.3 144,76.3 C133.7,76.3 125.3,67.4 125.3,56.4 C125.3,51.7 126.9,47.3 129.5,43.9 C129.5,38.8 131.3,29.6 134,25.6 C120.9,29.8 111.7,42.2 111.7,56.4 C111.7,74.3 126.4,88.8 144.1,88.8 C161.7,88.8 176.5,74.4 176.5,56.4 C176.4,43 168.2,31.4 156.6,26.5 Z M161.8,62.5 C153.9,60.2 148.1,52.5 148.1,43.3 C148.1,41.2 148.4,39.1 149,37.2 C156.9,39.5 162.7,47.2 162.7,56.4 C162.7,58.5 162.4,60.5 161.8,62.5 Z" id="Shape" fill-rule="nonzero"></path>
                <path d="M508.3,54.8 C508.3,34.1 498.5,23.9 480,23.9 C462.5,23.9 449.4,36.3 449.4,56.5 C449.4,64.1 451.1,70.5 454.2,75.7 C452,76.4 449.7,76.9 447.2,76.9 C442.5,76.9 440,75.5 439.4,71.1 L439.4,41 C439.4,26.9 431.6,24 422.5,24 C414.1,24 406.6,26.9 400.7,31.2 C400,25.8 398.3,25.5 395.3,25.5 L384.4,25.5 L384.4,75.3 C381.9,76.1 379.2,76.8 376.4,76.8 C375.5,76.8 374.6,76.7 373.8,76.6 C370.4,76 368.7,73.9 368.7,69 L368.7,36.5 C368.7,26.9 367.9,25.4 362.1,25.4 L352.4,25.4 L352.4,50.8 L352.4,68.9 L352.4,69.2 L352.4,75.3 C349.9,76.1 347.2,76.8 344.3,76.8 C338.9,76.8 336.3,75 336.3,68.8 L336.3,14.5 C336.3,6.1 335.3,4.7 329.5,4.7 L320.1,4.7 L320.1,52.7 L320.1,68.7 L320.1,70.9 C320.1,85 326.9,88.5 336,88.5 C343.3,88.5 350.7,86 356.4,82.5 C358.8,85.1 359.8,87.5 364.8,88.3 C364.8,88.3 364.8,88.3 364.8,88.4 C365.5,88.5 366.3,88.5 367.1,88.6 C367.4,88.6 367.7,88.6 368,88.6 C368.1,88.6 368.1,88.6 368.2,88.6 C368.2,88.6 368.3,88.6 368.3,88.6 C368.3,88.6 368.4,88.6 368.4,88.6 C368.5,88.6 368.7,88.6 368.8,88.6 C374.3,88.5 379.8,87 384.6,84.7 L384.6,87 L401.1,87 L401.1,40.4 C405,39 409.9,37.5 415.3,37.5 C420.7,37.5 423.1,39.3 423.1,45.5 L423.1,52.7 L423.1,71 C423.1,85.1 429.9,88.6 439,88.6 C446.6,88.6 454.3,85.9 460.1,82.1 C465.3,86.3 472.5,88.6 481.4,88.6 C494,88.6 501,85.4 506,82.5 L506,71 L500.6,71 C496.5,74 491,76.3 483.9,76.3 C474.2,76.3 468.2,72.8 467.4,60.3 L508.1,60.3 C508.1,59.6 508.3,57 508.3,54.8 Z M467.6,49.6 C468.9,37.9 474,34.9 480,34.9 C486.8,34.9 490.7,38.5 491,49.6 L467.6,49.6 Z" id="Shape" fill-rule="nonzero"></path>
                <path d="M118.1,11.4 L119.9,11.4 L119.9,0.6 L87.8,0.6 L87.8,11.4 L92.4,11.4 C97.3,11.4 98.5,14.4 96.7,19.9 L85.7,65.9 L85.4,65.9 L69.2,0.5 L54.3,0.5 L37.9,66 L37.6,66 L25.3,11.4 L35.7,11.4 L35.7,0.6 L0.3,0.6 L0.3,11.4 L2.3,11.4 C4.2,11.4 5.7,12.9 6.4,14.8 L24.5,88.6 L45.7,88.6 L59.4,34 L59.7,34 L73.2,88.6 L94.4,88.6 L113.3,15.3 C114.1,13 116,11.4 118.1,11.4 Z" id="Path"></path>
            </g>
        </g>
    </g>
</svg>